sigma_exponent,distance,p(H1)_mean,p(H1)_mean_round3,p(H1)_mean_round3up,p(H1)_sem,p(H1)_sem_round3up
0,160,0.0,0.0,0.0,0.0,0.0
0,180,0.0,0.0,0.0,0.0,0.0
0,200,0.0,0.0,0.0,0.0,0.0
0,220,0.0,0.0,0.0,0.0,0.0
0,240,0.0,0.0,0.0,0.0,0.0
0,260,0.0,0.0,0.0,0.0,0.0
0,280,0.0,0.0,0.0,0.0,0.0
0,300,0.0,0.0,0.0,0.0,0.0
0,320,0.0,0.0,0.0,0.0,0.0
0,340,0.0,0.0,0.0,0.0,0.0
0,360,0.0,0.0,0.0,0.0,0.0
5,160,3.927633300975714e-05,0.0,0.001,1.374468904208695e-05,0.001
5,180,6.714608648401414e-08,0.0,0.001,6.396592300128056e-08,0.001
5,200,1.6588981138127432e-12,0.0,0.001,1.6228006390758553e-12,0.001
5,220,7.042447215692277e-18,0.0,0.001,6.9698902901381e-18,0.001
5,240,5.1252143223688155e-24,0.0,0.001,5.0997252764281924e-24,0.001
5,260,6.371919342095007e-31,0.0,0.001,6.356392749628947e-31,0.001
5,280,1.3512577592539887e-38,0.0,0.001,1.3496258721955805e-38,0.001
5,300,4.88445372544506e-47,0.0,0.001,4.881504075749721e-47,0.001
5,320,3.008591914149304e-56,0.0,0.001,3.0076770910164123e-56,0.001
5,340,3.1572780893802657e-66,0.0,0.001,3.1567920255422524e-66,0.001
5,360,5.644583809496816e-77,0.0,0.001,5.644141904012123e-77,0.001
10,160,0.10973970819267566,0.11,0.11,0.0008837414637294636,0.001
10,180,0.005408464184503682,0.005,0.006,0.00019295210526819111,0.001
10,200,6.92662263732279e-05,0.0,0.001,2.0425599217782864e-05,0.001
10,220,6.994218507449286e-08,0.0,0.001,6.921665071792123e-08,0.001
10,240,5.1252272705058435e-14,0.0,0.001,5.099738157954254e-14,0.001
10,260,6.3719386026841025e-21,0.0,0.001,6.356411961972691e-21,0.001
10,280,1.3512625613169991e-28,0.0,0.001,1.3496306683169846e-28,0.001
10,300,4.884473871440837e-37,0.0,0.001,4.8815242093147496e-37,0.001
10,320,3.0086061596106476e-46,0.0,0.001,3.007691332061563e-46,0.001
10,340,3.1572950913207165e-56,0.0,0.001,3.1568090248190172e-56,0.001
10,360,5.6446180987992456e-67,0.0,0.001,5.6441761905868777e-67,0.001
15,160,0.8235724768615005,0.824,0.824,0.0011097586246366085,0.002
15,180,0.35190272599975336,0.352,0.352,0.001402278326123469,0.002
15,200,0.044656969765310826,0.045,0.045,0.0005879241461474055,0.001
15,220,0.001187206462463862,0.001,0.002,9.2262095183734e-05,0.001
15,240,1.206554373722189e-05,0.0,0.001,9.935489538395929e-06,0.001
15,260,6.37189819896592e-11,0.0,0.001,6.356371558466541e-11,0.001
15,280,1.3512625613168157e-18,0.0,0.001,1.3496306683168018e-18,0.001
15,300,4.884473871440836e-27,0.0,0.001,4.8815242093147495e-27,0.001
15,320,3.0086061596106466e-36,0.0,0.001,3.0076913320615625e-36,0.001
15,340,3.157295091320715e-46,0.0,0.001,3.1568090248190165e-46,0.001
15,360,5.644618098799244e-57,0.0,0.001,5.644176190586875e-57,0.001
20,160,0.997161645766736,0.997,0.998,0.0001456426280392997,0.001
20,180,0.924304169171667,0.924,0.925,0.0007720170149677331,0.001
20,200,0.5489705586398003,0.549,0.549,0.0014778265840972489,0.002
20,220,0.11611984925378609,0.116,0.117,0.0009390193607593611,0.001
20,240,0.005744618555365498,0.006,0.006,0.00021144080022628394,0.001
20,260,7.092660711188245e-05,0.0,0.001,2.2323156410912284e-05,0.001
20,280,1.3494435133715493e-08,0.0,0.001,1.3478116229192167e-08,0.001
20,300,4.8844738714170116e-17,0.0,0.001,4.8815242092909246e-17,0.001
20,320,3.00860615961065e-26,0.0,0.001,3.0076913320615655e-26,0.001
20,340,3.1572950913207185e-36,0.0,0.001,3.1568090248190194e-36,0.001
20,360,5.644618098799249e-47,0.0,0.001,5.64417619058688e-47,0.001
25,160,0.9999802420483588,1.0,1.0,1.3892389274727274e-05,0.001
25,180,0.9989171700181801,0.999,0.999,9.262879944728656e-05,0.001
25,200,0.9578975807812767,0.958,0.958,0.0005840798760709112,0.001
25,220,0.6584389175932378,0.658,0.659,0.0014168438014165727,0.002
25,240,0.1811399956090481,0.181,0.182,0.0011442168032753195,0.002
25,260,0.012378942170382603,0.012,0.013,0.0003174462954911419,0.001
25,280,0.0002038673556718721,0.0,0.001,3.96126501846034e-05,0.001
25,300,4.6572719929830407e-07,0.0,0.001,4.65432241999628e-07,0.001
25,320,3.0086061595201865e-16,0.0,0.001,3.007691331971103e-16,0.001
25,340,3.157295091320716e-26,0.0,0.001,3.156809024819018e-26,0.001
25,360,5.644618098799247e-37,0.0,0.001,5.644176190586877e-37,0.001
30,160,0.9999999999998889,1.0,1.0,7.863991003209873e-14,0.001
30,180,0.9999821292044646,1.0,1.0,1.2631845848073857e-05,0.001
30,200,0.9992942925283242,0.999,1.0,7.460751708882366e-05,0.001
30,220,0.9687786923339752,0.969,0.969,0.0005090561512888374,0.001
30,240,0.704387471352102,0.704,0.705,0.0013692452613360557,0.002
30,260,0.21676758001525956,0.217,0.217,0.001232796592957089,0.002
30,280,0.01715785734705453,0.017,0.018,0.0003773690003724706,0.001
30,300,0.00030580425681783383,0.0,0.001,4.98186962586644e-05,0.001
30,320,2.3131555051800013e-06,0.0,0.001,2.312240768367531e-06,0.001
30,340,3.157295091221062e-16,0.0,0.001,3.1568090247193624e-16,0.001
30,360,5.644618098799245e-27,0.0,0.001,5.6441761905868766e-27,0.001
35,160,1.0,1.0,1.0,0.0,0.0
35,180,0.9999999999999831,1.0,1.0,1.2056505570649942e-14,0.001
35,200,0.9999824065024636,1.0,1.0,1.2443001450758102e-05,0.001
35,220,0.9993251088821993,0.999,1.0,7.343484469516863e-05,0.001
35,240,0.9696602037233067,0.97,0.97,0.0005051714281565271,0.001
35,260,0.7081229369498425,0.708,0.709,0.0013696555952587045,0.002
35,280,0.21960020379589823,0.22,0.22,0.0012439847063366336,0.002
35,300,0.017527268251842407,0.018,0.018,0.00038400257563769516,0.001
35,320,0.00031246034020855276,0.0,0.001,5.0801685310086806e-05,0.001
35,340,2.399858899506119e-06,0.0,0.001,2.3993728598616643e-06,0.001
35,360,5.644618098767393e-17,0.0,0.001,5.644176190555026e-17,0.001
