sigma_exponent,distance,p(H1)_mean,p(H1)_mean_round3,p(H1)_mean_round3up,p(H1)_sem,p(H1)_sem_round3up
4,160,4.8919707942110205e-08,0.0,0.001,4.378578860882436e-08,0.001
4,180,6.823147357470866e-12,0.0,0.001,6.5019157053402095e-12,0.001
4,200,1.6753781316752545e-16,0.0,0.001,1.638922334453044e-16,0.001
4,220,7.112118366429781e-22,0.0,0.001,7.038844207469754e-22,0.001
4,240,5.17568691263839e-28,0.0,0.001,5.14994706186315e-28,0.001
4,260,6.434356395333392e-35,0.0,0.001,6.418677792385954e-35,0.001
4,280,1.3644267064303251e-42,0.0,0.001,1.3627789297167628e-42,0.001
4,300,4.931777457432415e-51,0.0,0.001,4.928799256108796e-51,0.001
4,320,3.0375575223637596e-60,0.0,0.001,3.036633900105836e-60,0.001
4,340,3.1874700507260737e-70,0.0,0.001,3.18697934344784e-70,0.001
4,360,5.698171918406842e-81,0.0,0.001,5.6977258219138155e-81,0.001
